-------------------------------------------------------------------------------
Test set: com.shahinnp.telegrambot.TelegrambotApplicationTests
-------------------------------------------------------------------------------
Tests run: 1, Failures: 0, Errors: 0, Skipped: 0, Time elapsed: 9.216 s - in com.shahinnp.telegrambot.TelegrambotApplicationTests
