com\shahinnp\telegrambot\AWSV4Auth$Builder.class
com\shahinnp\telegrambot\controller\FacebookController.class
com\shahinnp\telegrambot\GraphPostUtitlty.class
com\shahinnp\telegrambot\entity\UrlConversion.class
com\shahinnp\telegrambot\AWSV4Auth.class
com\shahinnp\telegrambot\repository\UriRepository.class
com\shahinnp\telegrambot\ServletInitializer.class
com\shahinnp\telegrambot\thread\PostThread.class
com\shahinnp\telegrambot\TelegrambotApplication.class
com\shahinnp\telegrambot\SimpleBot.class
com\shahinnp\telegrambot\AmazonApiWitoutSDK.class
com\shahinnp\telegrambot\entity\FbPostObj.class
com\shahinnp\telegrambot\controller\ExcelController.class
com\shahinnp\telegrambot\controller\RedirectController.class
